{
  "id": "vme-chartContainer",
  "name": "Chart",
  "spec": "1.0",
  "version": "1.0",
  "type": "block",
  "content": [
  "div",
    {
      "data-vme-dad": "sortable",
      "data-vme-itemid": "vme-chartContainer",
      "data-vme-type": "block",
	  "data-vmert-afterrender" : "chartContainer_oam.showChart",
	  "class":"chart-container"
    },
	[
		"div",
		{
		  "data-vme-dad": "sortable",
		  "data-vme-itemid": "vme-chart",
		  "data-vme-type": "block",
		  "class":"chart"
		}
	],
    [
      "table",
      {
        "data-vme-itemid": "vme-table",
        "data-vme-type": "block",
        "class": "table table-chart"
      },
      [
        "thead",
        {
          "data-vme-itemid": "vme-thead",
          "data-vme-type": "block"
        },
        [
          "tr",
          [
            "th",
            "HEAD 1"
          ],
          [
            "th",
            "HEAD 2"
          ]
        ]
      ],
      [
        "tbody",
        {
          "data-vme-itemid": "vme-tbody",
          "data-vme-type": "block",
          "data-vmert-onrender": "table_oam.hideTableRows",
          "data-vmert-afterrender": "table_oam.showTableRows"
        },
        [
          "tr",
          [
            "td",
            {
              "data-vme-dad": "sortable",
              "data-vme-type": "block"
            }
          ],
          [
            "td",
            {
              "data-vme-dad": "sortable",
              "data-vme-type": "block"
            }
          ]
        ]
      ]
    ]
	]
}