{
	"id": "vme-checkbox",
	"name": "Form checkbox",
	"description": "Check/Uncheck input option.",
	"type": "inline",
	"content": [
		"div",
		{
			"data-vme-itemid" : "vme-checkbox",
			"class" : "checkbox"
		},
		[
			"input",
			{
				"data-vme-itemid" : "vme-inputcheckbox",
				"type" : "checkbox"    	
			}
		],
		"checkbox. Lorem ipsum dolor sit amet"
	]
}
