{
	"id": "vme-div",
	"name": "Div",
	"description": "Generic block container.",
	"type": "block",	
	"content": [
    	"div",
    	{   "data-vme-dad" : "sortable",
    		"data-vme-itemid" : "vme-div",
    		"data-vme-type" : "block"
    	},
    	"div. Lorem ipsum dolor sit amet"
    ],
	"property": [
		{
			"name" : "with",	
			"datatype": "object",			
			"onlydatabind": true,
			"databind": "with",
			"databind-type" : "simple"
		},
		{
			"name" : "foreach",	
			"datatype": "array",			
			"onlydatabind": true,
			"databind": "foreach",
			"databind-type" : "simple"
		}					
	],
	"bootstrap":[
		{
			"property": "Emphasis",
			"type": "dropdown",
			"option":[
				{
					"name":"default",
					"bclass":""
				},
				{
					"name":"muted",
					"bclass":"text-muted"
				},
				{
					"name":"primary",
					"bclass":"text-primary"
				},
				{
					"name":"success",
					"bclass":"text-success"
				},
				{
					"name":"info",
					"bclass":"text-info"
				},
				{
					"name":"warning",
					"bclass":"text-warning"
				},
				{
					"name":"danger",
					"bclass":"text-danger"
				}
			],
			"defaultValue": "default"
		},
		{
			"property": "Align",
			"type": "dropdown",
			"option":[
				{
					"name":"default",
					"bclass":""
				},
				{
					"name":"left",
					"bclass":"text-left"
				},
				{
					"name":"center",
					"bclass":"text-center"
				},
				{
					"name":"right",
					"bclass":"text-right"
				}
			],
			"defaultValue": "default"
		}
	]	
}
