{
	"id": "vme-form",
	"name": "Form",
	"description": "Form can submit information in order to retrieve data from datasource.",
	"type": "block",	
	"content": [
    	"form",
    	{   "data-vme-dad" : "sortable",
			"data-vmert-onrender" : "form_oam.initForm",
			"data-vmert-invokeenabled" : "true",
    		"data-vme-itemid" : "vme-form",
    		"data-vme-type" : "block",
    		"role" : "form"
    	},
		[
	    	"div",
	    	{   			    		  		
				"data-vme-dad" : "sortable",
	    		"data-vme-type" : "block",
				"class" : "row"    		
	    	},
	    	[
				"div",
				{
					"data-vme-dad" : "sortable",
					"data-vme-type" : "block",
					"class" : "input-field col s12" 
				},
				[
					"input",
					{
						"data-vme-itemid" : "vme-inputtext",
						"type" : "text",
						"placeholder" : "",
						"id" : "input_id"
					}
				],
				[
					"label",
					{
						"data-vme-itemid" : "vme-label",
						"for" : "input_id"
					},
					"Label. Lorem ipsum"
				]
	    	]		
	    ], 
		[
	    	"div",
	    	{   			    		  		
				"data-vme-dad" : "sortable",
	    		"data-vme-type" : "block",
				"class" : "row"    		
	    	},
	    	[
				"div",
				{
					"data-vme-dad" : "sortable",
					"data-vme-type" : "block",
					"class" : "input-field col s12" 
				},
				[
					"button",
					{ 				
						"data-vme-itemid" : "vme-button",
						"data-vme-type" : "inline",
						"type" : "submit",
						"class" : "btn waves-effect waves-light"
					},
					"Submit"
				]
	    	]		
	    ]		
    ],			
	"property": [
		{
			"name" : "action",	
			"label": "Action:",
			"inputdatabind": "true"
		},
		{
			"name" : "data-vmert-invokeenabled",
			"label": "inv. mashup",
			"title": "invoke mashup (true/false)",
			"checkbox": "true"
		},
		{
			"name" : "callbackfunction",
			"label": "Callback Function",
			"title": "It is the Javascript function to be invoked when data are available",
			"datatype": "text"
		},
		{
			"name" : "onloadsubmit",
			"label": "On Load",
			"title": "Trigger submit event on page loading",
			"checkbox": "false"
		},
		{
			"name" : "interval",
			"label": "Interval",
			"title": "Set Interval",
			"datatype": "text"
		}
	]
}
