{
	"id": "vme-formgrouptextarea",
	"name": "Form textarea",
	"description": "Textual input area.",
	"type": "block",
	"content": [
    	"div",
    	{   			 		
			"data-vme-dad" : "sortable",
    		"data-vme-type" : "block",
			"class" : "form-group"    		
    	},
    	[
			"label",
			{
				"data-vme-itemid" : "vme-label"
			},
			"Label. Lorem ipsum"
    	],
    	[
			"textarea",
			{   			
				"data-vme-itemid" : "vme-textarea",
				"class" : "form-control",
				"placeholder" : "textarea. Lorem ipsum dolor sit amet"
			}
    	]		
    ]
}
