{
	"id": "vme-h",
	"name": "Heading",
	"description": "Heading title with different levels.",
	"type": "block",	
	"content": [
    	"h1",
    	{   "data-vme-dad" : "sortable",
    		"data-vme-itemid" : "vme-h",
    		"data-vme-type" : "block",
			"data-onlydatabind" : "false",
			"data-datatype" : "text",
			"data-databind" : "text",
			"data-databind-type" : "simple",
			"data-bind-property" : "text"
    	},
    	"Title"
    ],		
	"property": [		
		{
			"name" : "text",	
			"datatype": "text",			
			"onlydatabind": false,
			"databind": "text",
			"databind-type" : "simple"
		}					
	],
	"bootstrap":[
		{
			"property": "Emphasis",
			"type": "dropdown",
			"option":[
				{
					"name":"default",
					"bclass":""
				},
				{
					"name":"muted",
					"bclass":"text-muted"
				},
				{
					"name":"primary",
					"bclass":"text-primary"
				},
				{
					"name":"success",
					"bclass":"text-success"
				},
				{
					"name":"info",
					"bclass":"text-info"
				},
				{
					"name":"warning",
					"bclass":"text-warning"
				},
				{
					"name":"danger",
					"bclass":"text-danger"
				}
			],
			"defaultValue": "default"
		},
		{
			"property": "Align",
			"type": "dropdown",
			"option":[
				{
					"name":"default",
					"bclass":""
				},
				{
					"name":"left",
					"bclass":"text-left"
				},
				{
					"name":"center",
					"bclass":"text-center"
				},
				{
					"name":"right",
					"bclass":"text-right"
				}
			],
			"defaultValue": "default"
		}
	]	
}
