{
	"id": "vme-label",
	"name": "Label",
	"type": "inline",
	"content": [
    	"label",
    	{   			
    		"data-vme-itemid" : "vme-label"
    	}
    ],	    
	"property": [
		{
			"name" : "for"
		}				
	]
}
