{
	"id": "vme-gmap",
	"name": "Google Map",
	"spec": "1.0",
	"version": "1.0",
	"type": "block",	
	"content": [
    	"div",
    	{
    		"data-vme-itemid" : "vme-gmap",
    		"data-vmert-onrender" : "gmap_oam.initMap",
    		"data-vme-onexport" : "gmap_oam.destroyMap",
    		"data-vme-type" : "block",
    		"data-vme-childrenlock" : true,
    		"style" : "height: 500px"
    	}
    ],
    "property": [
		{
			"name" : "markers",
			"title": "Path in the object where to find markers",
			"onlydatabind": true,
			"datatype": "object||array",
			"databind": "map",
			"databind-type" : "complex"		
		},
		{
			"name" : "coordpath",
			"label": "Coords",
			"title": "Path in the object where to find coordinates (lat and lng)",
			"datatype": "text"
		},
		{
			"name" : "infotitle",
			"label": "Title",
			"title": "Title to display in the marker info window",
			"datatype": "text"
		},
		{
			"name" : "infodescr",
			"label": "Descript.",
			"title": "Description to display in the marker info window",
			"datatype": "text"
		},
		{
			"name" : "markeraction",
			"label": "Action",
			"title": "JS function to call when click on marker",
			"datatype": "text"
		},
		{
			"name" : "markeractionname",
			"label": "Act. display",
			"title": "Name to display on action button",
			"datatype": "text"
		},
		{
			"name" : "markeractionpar",
			"label": "Act. Par.",
			"title": "Parameter passed to the action",
			"datatype": "text"
		}
	],
	"events" : {		
  		"oncanvas" : {
  			"module" : "gmap_oam",
			"actions" : [			
				{
					"actionName": "Google Map Initialize",
					"method": "initMap"
				}
			]
		},
  		"onexport" : {
  			"module" : "gmap_oam",
			"actions" : [			
				{
					"actionName": "Google Map Destroy",
					"method": "destroyMap"
				}
			]
		}
  	},
	"title": {
		"type": "text/html",
		"value": "<p>HTML level 1 section header element</p>"
	},
	"description": {
		"type": "text/html",
		"value": "<p>The h1 element has the highest rank (i.e., largest size), the h6 element has the lowest rank.</p>"
	}	
}
