{
  "id": "vme-pill",
  "name": "Pill",
  "type": "block",  
  "content": [
   "div",
   {

		"data-vme-itemid" : "vme-pill",
		"data-vme-type" : "block",
		"data-vme-dad" : "sortable",
		"data-vme-childrenlock" : "false",
		"data-vmert-onrender" : "pill_oam.initTab",
		"class":"vme-nav-pills"
	},
	[
	"a",
							{
								
								"data-vme-itemid" : "vme-a",
								"href":"#add",
								"class": "add-tab"								
							},
							[
								"span",
								{
									"class": "add-tab glyphicon glyphicon-plus-sign "
								}
							],
							"Add"
							
	],
	[
		"ul",
			{  
			"data-vme-itemid" : "vme-ul",
				"class" : "nav nav-pills vme-pills"
			},
			[
				"li",
					{
						"data-vme-itemid" : "vme-li",
						"class":"li active"			
					},
					[
						"a",
							{
								
								"data-vme-itemid" : "vme-a",
								"href":"#page-1",
								"data-toggle":"pill"
							},
							"Page 1",
							[
								"span",
								{
									"class": "remove-tab glyphicon glyphicon-minus-sign "
								}
							]
					]
			],
			[
				"li",
					{
						"data-vme-itemid" : "vme-li",
						"class":"li"					
					},
					[
						"a",
							{
								"data-vme-itemid" : "vme-a",						
								"href":"#page-2",
								"data-toggle":"pill"
							},
							"Page 2",
							[
								"span",
								{
									"class": "remove-tab glyphicon glyphicon-minus-sign "
								}
							]
					]
			
			]
	],
	[
		"div",
			{
				"data-vme-type" : "block",
				"data-vme-dad":"sortable",
				"class":"tab-content pill-content",
				"id":"pillContent"
			},
			
			[
				"div",
					{
						"role":"tabpanel",
						"class":"tab-pane pill page-1 active",
						"data-vme-itemid" :"page-1",
						"id":"page-1",
						"data-vme-type" : "block",
						"data-vme-dad":"sortable"
					},
					"page1"
			],
			[
				"div",
					{
						"role":"tabpanel",
						"class":"tab-pane pill page-2",
						"data-vme-itemid" :"page-2",
						"id":"page-2",
						"data-vme-type" : "block",
						"data-vme-dad":"sortable"
					},
					"page2"
				]
	]
	],      
  "events" : {  	
  	"edit" : {
  		"module" : "pill_oam",
	  	"actions" : [
			{
				"actionName": "Add Page",
		  		"buttonId": "addPage",
		  		"method": "addPageFn"
			},
			{	
				"actionName": "Remove Page",
		  		"buttonId": "removePage",
		  		"method": "removePageFn"
			},
			{	
				"actionName": "Toggle Tab/Pill",
		  		"buttonId": "togglecomponent",
		  		"method": "toggleComponentFn"
			},
			{	
				"actionName": "Hide/Show Controls",
		  		"buttonId": "hidecontrols",
		  		"method": "hideControlsFn"
			}			
	  	]
  	 },
   "oncanvas" : {
		"module" : "pill_oam",
		"actions" : [			
			{
				"actionName": "Pill Initialize",
				"method": "initTab"
			}
		]
	}
  },		
	"property": [
		{
			"name" : "pilltype",
			"label": "Type",
			"title":"Select Type",			
			"datatype": "text",
			"option": [
				{
					"value": "pill"
				},
				{
					"value": "tab"
				}
			]
		}
		],

  "title": {
    "type": "text/html",
    "value": "<p>HTML hyperlink or HTML anchor element.</p>"
  },
  "description": {
    "type": "text/html",
    "value": "<p>If the a element has an href attribute, then it represents a hyperlink (a hypertext anchor) labeled by its contents.</p><p>If the a element has no href attribute, then the element represents a placeholder for where a link might otherwise have been placed, if it had been relevant, consisting of just the element's contents.</p>"
  }
}
