{
	"id": "vme-tbody",
	"name": "TBody",	
	"type": "block",	
	"content": [
    	"tbody",
    	{
    		"data-vme-itemid" : "vme-tbody",
    		"data-vme-type" : "block"
    	},
    	"tbody. Lorem ipsum dolor sit amet"
    ],			
	"property": [
		{
			"name" : "with",	
			"datatype": "object",			
			"onlydatabind": true,
			"databind": "with",
			"databind-type" : "simple"
		},
		{
			"name" : "foreach",	
			"datatype": "array",			
			"onlydatabind": true,
			"databind": "foreach",
			"databind-type" : "simple"
		}					
	]
}
