{
	"idprefix" : "removeproperty",
	"type" : "vme2.shape.Operator.removeproperty",
	"emmlmacro" : "removeproperty",
	"name":"Remove property",
	"description" : "Removes the selected property from each element of the given array.",
	"parameters":
		[
			{
				"doc":"Represents the path of the source array in the source tree.",
				"label":"Source Array",
				"name":"source",
				"datatype":"array",
				"droppable" : true,
				"sourceexp":true,
				"required":true,
				"event" : "drop"
			},
			{
				"doc":"The property you want to remove from the elements of the array.",
				"label":"Property",
				"name":"property",
				"options":["<select>"],
				"required":true
			}
		],
	"events": [
		{
			"event": "drop",
			"method": "propertyPopulate"
		}
	],
	"init": {	
		"method": "initOperator"
	},
	"isValid": {
		"method": "isValid"
	}
}
