{
	"idprefix" : "iterator",
	"type" : "vme2.shape.Operator.iterator",
	"emmlscriptgenerator" : "com.mediigea.vme2.emml.operator.Iterator",
	"name":"Iterator",
	"parameters":
	[
		{
			"doc":"Represents the source array path.",
			"label":"Array",
			"name":"source",
			"hasinnerprocess":"true",
			"droppable" : true,
			"sourceexp":true,				
			"datatype":"array",
			"required":true
		}								
	],
	"init": {
		"method": "initOperator"
	},
	"isValid": {
		"method": "isValid"
	},
	"onOk": {
		"method": "clean"
	},
	"onCancel": {
		"method": "clean"
	}
}
