{
	"idprefix" : "branch2",
	"type" : "vme2.shape.Operator.branch2",
	"emmlscriptgenerator" : "com.mediigea.vme2.emml.operator.MultiSourcesOperator",
	"emmlmacro" : "branch2",
	"name":"Branch",
	"description":"Checks a Condition (true/false value) and returns the True condition object if the Condition is true or the False condition object otherwise.",
	"parameters":
	[
		{
			"doc":"Represents the path of the condition in the source tree.",
			"label":"Condition",
			"name":"condition",
			"droppable" : true,
			"datatype":"text",
			"sourceexp":true,
			"required":true
		},
		{
			"doc":"Represents the result of the branch if condition is true",
			"label":"True condition object",
			"name":"iftrue",
			"droppable" : true,
			"sourceexp":true,
			"required":true
		},
		{
			"doc":"Represents the result of the branch  if condition is false",
			"label":"False condition object",
			"name":"iffalse",
			"droppable" : true,
			"sourceexp":true,
			"required":true
		}
	],
	"init": {
		"method": "initOperator"
	},
	"isValid": {
		"method": "isValid"
	},
	"onOk": {
		"method": "clean"
	},
	"onCancel": {
		"method": "clean"
	}
}
