{
	"idprefix" : "cast",
	"type" : "vme2.shape.Operator.cast",
	"emmlmacro" : "cast",
	"name":"Cast",
	"parameters":
		[
			{
				"doc":"Represents the source path.",
				"label":"Input value to cast",
				"name":"source",
				"droppable" : true,
				"datatype":"text",
				"sourceexp":true,
				"required":true
			},
			{
				"doc":"Data type used to cast input value",
				"label":"Data type",
				"name":"datatype",
				"required":true,
				"options":[
					"integer",
					"float",
					"string",
					"date"
				]
			},
			{
				"doc":"Condition to specify if output must be an array",
				"label":"Is array",
				"name":"isarray",
				"required":true,
				"options":[
					"true",
					"false"
				]
			}			
		]
}
