{
	"idprefix" : "formula",
	"type" : "vme2.shape.Operator.formula",
	"emmlscriptgenerator" : "com.mediigea.vme2.emml.operator.MultiSourcesOperator",
	"emmlmacro" : "formula",
	"name":"Formula",
	"description": "Creates a formula and returns its result.",
	"parameters":
		[

		],
	"actions": [
			{
				"name": "Add Operand",
		  	"method": "addOperand"
			},
			{
				"name": "Add Operator",
		  	"method": "addOperator"
			}
		]
}
