{
	"idprefix" : "matcher",
	"type" : "vme2.shape.Operator.matcher",
	"emmlscriptgenerator" : "com.mediigea.vme2.emml.operator.TwoSourcesOperator",
	"emmlmacro" : "matcher",
	"name":"Value Matcher",
	"description":"Check if source values are the same.",
	"parameters":
		[
			{
				"doc":"Represents the first value.",
				"label":"Value #1",
				"name":"obj_1",
				"droppable" : true,
				"sourceexp":true,				
				"datatype":"text",
				"required":true
			},
			{
				"doc":"Represents the second value.",
				"label":"Value #2",
				"name":"obj_2",
				"droppable" : true,
				"sourceexp":true,				
				"datatype":"text",
				"required":true
			}
		]
}
