{
	"idprefix" : "invoker",
	"type" : "vme2.shape.Operator.invoker",
	"emmlscriptgenerator" : "com.mediigea.vme2.emml.operator.MultiSourcesOperator",
	"emmlmacro" : "invoker",
	"name":"Invoker",
	"description":"Invokes the web service whose endpoint is given in input.",
	"parameters":
		[
			{
				"doc":"Endpoint of the web service to invoke.",
				"label":"Endpoint URL",
				"name":"endpoint",
				"droppable" : true,
				"sourceexp":true,				
				"datatype":"text",
				"required":true
			},
			{
				"doc":"HTTP Method",
				"label":"HTTP Method",
				"name":"method",
				"options":
				[
					"GET",
					"POST"
				],
				"required":true
			},
			{
				"doc":"Specify how parameters are added to endpoint URL",
				"label":"Parameters Type (GET)",
				"name":"parameterstype",
				"options":
				[
					"QUERY",
					"TEMPLATE"
				],
				"required":true
			},
			{
				"doc":"Request Content-Type",
				"label":"Content-Type (POST)",
				"name":"contenttype",
				"options":
				[
					"application/x-www-form-urlencoded",
					"application/json"
				],
				"required":true
			},
			{
				"doc":"An object that contains the input key-value pairs.",
				"label":"Input",
				"name":"inputobj",
				"droppable" : true,
				"sourceexp":true,				
				"datatype":"object",
				"required":false
			}
		],
	"actions": [
			
		]
}
