{
	"idprefix" : "pluck",
	"type" : "vme2.shape.Operator.pluck",
	"emmlmacro" : "pluck",
	"name":"Extract property",
	"description" : "Extracts the selected property from each element of the given array and returns a new array where elements contain only the selected property.",
	"parameters":
		[
			{
				"doc":"Represents the path of the source array in the source tree.",
				"label":"Source Array",
				"name":"source",
				"datatype":"array",
				"droppable" : true,
				"sourceexp":true,
				"required":true,
				"event" : "drop"
			},
			{
				"doc":"The property you want to extract from the elements of the array.",
				"label":"Property",
				"name":"property",
				"options":["<select>"],
				"required":true
			}
		],
	"events": [
		{
			"event": "drop",
			"method": "propertyPopulate"
		}
	],
	"init": {	
		"method": "initOperator"
	},
	"isValid": {
		"method": "isValid"
	}
}
