{
	"idprefix" : "regexpmatch",
	"type" : "vme2.shape.Operator.regexpmatch",
	"emmlmacro" : "regexpmatch",
	"name":"Regular expression match ",
	"parameters":
		[
			{
				"doc":"Represents the source string path to match.",
				"label":"String to match",
				"name":"source",
				"droppable" : true,
				"sourceexp":true,				
				"datatype":"text",
				"required":true
			},
			{
				"doc":"Represents the regular expression used to match string.",
				"label":"Regular Expression",
				"name":"regexp",
				"datatype":"text",
				"required":true
			}		
		]
}
