{
	"idprefix" : "cast",
	"type" : "vme2.shape.Operator.cast2",
	"emmlmacro" : "cast2",
	"name":"Cast",
	"parameters":
		[
			{
				"doc":"Represents the source path.",
				"label":"Input value to cast",
				"name":"source",
				"droppable" : true,
				"datatype":"text",
				"sourceexp":true,
				"required":true
			},
			{
				"doc":"Data type used to cast input value",
				"label":"New Data type",
				"name":"datatype",
				"required":true,
				"options":[
					"Number",
					"String",
					"Date"
				]
			}			
		],
	"init": {
		"method": "initOperator"
	},
	"isValid": {
		"method": "isValid"
	},
	"onOk": {
		"method": "clean"
	},
	"onCancel": {
		"method": "clean"
	}
}
